speaker,village,age_group,basque
sp_1,altsasu,young,home
sp_2,urdiain,adult,school
sp_3,urdiain,young,school
sp_4,urdiain,young,home
sp_5,urdiain,old,home
sp_6,urdiain,old,home
sp_7,urdiain,old,home
sp_8,urdiain,adult,home
sp_9,altsasu,old,home
sp_10,urdiain,young,home
sp_11,urdiain,old,school
sp_12,urdiain,old,school
sp_13,urdiain,old,school
sp_14,urdiain,adult,school
sp_15,altsasu,young,home
sp_16,altsasu,young,home
sp_17,altsasu,adult,school
sp_18,urdiain,old,school
sp_19,urdiain,old,home
sp_20,urdiain,adult,school
sp_21,urdiain,adult,home
sp_22,urdiain,old,school
sp_23,altsasu,adult,home
sp_24,urdiain,adult,home
sp_25,urdiain,old,home
sp_26,altsasu,old,school
sp_27,altsasu,young,home
sp_28,altsasu,young,school
sp_29,altsasu,adult,school
sp_30,urdiain,young,school
sp_31,altsasu,adult,school
sp_32,urdiain,young,home
sp_33,altsasu,old,school
sp_34,urdiain,adult,school
sp_35,urdiain,adult,school
sp_36,altsasu,young,home
sp_37,urdiain,young,home
sp_38,altsasu,adult,school
sp_39,altsasu,adult,school
sp_40,urdiain,old,home
sp_41,altsasu,adult,home
sp_42,altsasu,young,school
sp_43,altsasu,young,school
sp_44,urdiain,adult,school
sp_45,altsasu,old,home
sp_46,urdiain,old,school
sp_47,altsasu,old,school
sp_48,urdiain,old,home
sp_49,urdiain,young,school
sp_50,urdiain,old,home
